[
{
  "directory": "/ccc/dsku/nfs-server/user/cont001/ocre/demeuren/thesis/code/shamanizer/example/lulesh",
  "command": "clang++   -I/ccc/dsku/nfs-server/user/cont001/ocre/demeuren/thesis/code/shamanizer/example/lulesh/../../../shaman/shaman/shaman   -mfma -O1   -std=gnu++1y -o CMakeFiles/lulesh.exe.dir/main.cpp.o -c /ccc/dsku/nfs-server/user/cont001/ocre/demeuren/thesis/code/shamanizer/example/lulesh/main.cpp",
  "file": "/ccc/dsku/nfs-server/user/cont001/ocre/demeuren/thesis/code/shamanizer/example/lulesh/main.cpp"
},
{
  "directory": "/ccc/dsku/nfs-server/user/cont001/ocre/demeuren/thesis/code/shamanizer/example/lulesh",
  "command": "clang++   -I/ccc/dsku/nfs-server/user/cont001/ocre/demeuren/thesis/code/shamanizer/example/lulesh/../../../shaman/shaman/shaman   -mfma -O1   -std=gnu++1y -o CMakeFiles/lulesh.exe.dir/ccc/dsku/nfs-server/user/cont001/ocre/demeuren/thesis/code/shaman/shaman/shaman/src/GlobalVar.cpp.o -c /ccc/dsku/nfs-server/user/cont001/ocre/demeuren/thesis/code/shaman/shaman/shaman/src/GlobalVar.cpp",
  "file": "/ccc/dsku/nfs-server/user/cont001/ocre/demeuren/thesis/code/shaman/shaman/shaman/src/GlobalVar.cpp"
}
]